{
  "Items": [
    [" 1", "Coordinated Bicycles", "57460 Dewitt St"],
    [" 1", "Coordinated Bicycles - North", "4026 Edmund St"],
    [" 1", "Coordinated Bicycles - South", "1440 Campbell Ln"],
    [" 2", "Price Brothers Dept Store", "44 E Main St"],
    [" 3", "Claymore Bicycles", "197 Bellevue Ave"],
    [" 3", "Claymore Bicycles", "10601 N I 70 Service Rd"],
    [" 3", "Precision Bicycles", "1869 Cliffbrook Ln"],
    [" 4", "Gilmore Two Wheelers", "48 W Bulldog Blvd"],
    [" 5", "Control Bicycles, Inc.", "890 W Riverside Blvd"],
    [" 5", "Control Bicycles, Inc.", "913 Bathurst St"],
    [" 6", "Larry's Bicycles", "204 N 36th St"],
    [" 7", "Travel Time Bicycles", "2196 Liberty Dr"],
    [" 7", "Travel Time Bicycles", "17 Claverick St"],
    [" 8", "Ian's Bicycle Products", "2910 Cole Ct"],
    [" 9", "Carolina Frames, Inc", "280 Meeting St"],
    [" 10", "Engineered Bicycles", "1433 High St"],
    [" 11", "Kay's Bike Shop", "629 S Broadway St"],
    [" 11", "Bikes Unlimited", "407 W Rock Island Ave"],
    [" 12", "Lake House Cycles", "700 Front St"],
    [" 13", "Brand Central Dept Store", "575 Pacific St"],
    [" 14", "Hornes Department Store", "2110 E Carson St"],
    [" 15", "Island Bicycles", "1816 Bernardo De Galvez Ave"],
    [" 16", "Stevenson Sporting Goods", "1315 South Claudina St"],
    [" 16", "Stevenson Sporting Goods", "665 Kensington Dr"],
    [" 16", "Stevenson Sporting Goods", "107 Memorial Dr"],
    [" 16", "Stevenson Sporting Goods", "235 High St"],
    [" 16", "Stevenson Sporting Goods", "9477 S Santa Monica Blvd"],
    [" 17", "Carnival Cycles", "1001 NW Wall St"],
    [" 18", "Granderson's", "13480 Olde Western Ave"],
    [" 19", "H.H. Squash", "1035 W Northern Lights Blvd"],
    [" 20", "Eddie Boscho, Inc.", "1420 Frankford Ave"],
    [" 24", "Ting Tang Bicycles", "1836 W 25th St"],
    [" 25", "Schwinng Bicycles Dist.", "8015 Plainfield Rd"],
    [" 25", "Schwinng Bicycles Dist.", "1971 Riverside Dr"],
    [" 26", "BC Racing Cycles", "195 W Broadway"],
    [" 27", "Foster's Bicycle Shop", "288 Queen St"],
    [" 28", "Northern Lights Cycles", "5 Hawthorne Ave"],
    [" 29", "Cyclo's Bicycle Shop", "6455 Macleod Trail SW"],
    [" 30", "South Shore Sporting Goods", "4 Jetty Rd"],
    [" 31", "Bradley J. Simpson", "4512 Blackwolf Rd"],
    [" 32", "Miguel Indy", "5024 Pontchartrain Blvd"],
    [" 33", "Advising Group", "400 4th Ave SW Ste 2330"],
    [" 34", "New_Future", ""],
    [" 35", "New", ""],
    ["AU00001", "Superior Truck Equipment", "792056 Street SE"],
    ["AU00002", "Canadian Products - Mierau Contractors", "1 Maple Leaf Drive"],
    ["AU00003", "A.T.E. International", "Mandeville Place"],
    ["AUCHRY1", "Chrysler Corporation", "1000 Chrysler Drive"],
    ["AUCHRY1", "Chrysler Corp, Windsor Plant", "1 Riverside Drive West"],
    ["AUHAP01", "Electrical Supplies Inc.", "13395 NW 107th Avenue"]
  ],
  "Message": null,
  "MessageCode": 0
}
